{
  "$schema": "http://json-schema.org/draft-07/schema#",
  "$id": "http://foo.bar/snippets/network.json",
  "type": "object",
  "properties": {
    "bluetooth": {
      "type": "boolean",
      "description": "nameis bluetooth enabled",
      "examples": [
        "true",
        "false"
      ]
    },
    "wifi": {
      "type": "boolean",
      "description": "is wifi enabled",
      "examples": [
        "true",
        "false"
      ]
    },
    "cellular": {
      "type": "boolean",
      "description": "is cellular data enabled",
      "examples": [
        "true",
        "false"
      ]
    },
    "carrier": {
      "type": "string",
      "minLength": 1,
      "description": "the name of the carrier the user is using",
      "examples": [
        "Vodafone"
      ]
    },
    "type": {
      "type": "string",
      "minLength": 1,
      "description": "the type of network connection the user is using",
      "examples": [
        "2G",
        "3G",
        "4G",
        "WiFi",
        "OtherRadioAccess",
        "unknown"
      ]
    }
  }
}
